<?xml version="1.0" encoding="UTF-8" standalone="no"?>
<svg
   xmlns:dc="http://purl.org/dc/elements/1.1/"
   xmlns:cc="http://creativecommons.org/ns#"
   xmlns:rdf="http://www.w3.org/1999/02/22-rdf-syntax-ns#"
   xmlns:svg="http://www.w3.org/2000/svg"
   xmlns="http://www.w3.org/2000/svg"
   data-name="Layer 1"
   width="456.98315"
   height="279.62561"
   viewBox="0 0 456.98314 279.62561"
   version="1.1"
   id="svg32">
  <metadata
     id="metadata38">
    <rdf:RDF>
      <cc:Work
         rdf:about="">
        <dc:format>image/svg+xml</dc:format>
        <dc:type
           rdf:resource="http://purl.org/dc/dcmitype/StillImage" />
        <dc:title></dc:title>
      </cc:Work>
    </rdf:RDF>
  </metadata>
  <defs
     id="defs36" />
  <g
     id="g850"
     transform="translate(-494.43045,-18.33409)">
    <path
       id="path20"
       transform="translate(-113.9759,-150.25)"
       d="m 1060.3895,180.02225 v 255.72354 a 6.43607,6.43607 0 0 1 -6.4339,6.43822 H 619.84457 a 5.42512,5.42512 0 0 1 -0.92269,-0.0718 6.43224,6.43224 0 0 1 -5.51553,-6.36646 v -255.7235 a 6.436,6.436 0 0 1 6.43386,-6.43816 h 434.11109 a 6.43606,6.43606 0 0 1 6.4382,6.43391 z"
       style="fill:#ececec" />
    <circle
       id="circle22"
       r="56.48299"
       cy="118.89939"
       cx="608.85718"
       style="fill:#ffe680" />
    <path
       id="path24"
       transform="translate(-113.9759,-150.25)"
       d="M 899.95742,443.20921 H 622.8688 a 5.64951,5.64951 0 0 1 -1.03547,-0.082 L 752.88347,216.12946 a 9.17579,9.17579 0 0 1 15.97251,0 l 87.9511,152.33308 4.21356,7.28916 z"
       style="fill:#999999" />
    <polygon
       id="polygon26"
       style="opacity:0.2;isolation:isolate"
       points="742.832,218.212 747.045,225.502 785.981,292.959 691.377,292.959 737.818,225.502 741.161,220.643 " />
    <path
       id="path28"
       transform="translate(-113.9759,-150.25)"
       d="M 1054.2383,443.20921 H 814.57943 l 46.44121,-67.45755 3.34209,-4.85945 60.517,-87.91012 c 3.96746,-5.76155 13.512,-6.12036 18.17662,-1.08668 a 10.936,10.936 0 0 1 0.87147,1.08668 z"
       style="fill:#b3b3b3" />
  </g>
</svg>
